1-Week_1/4_DAY-5/tb_rca.vcd
$date
	Sat Sep 27 19:40:46 2025
$end
$version
	Icarus Verilog
$end
$timescale
	1ps
$end
$scope module tb_rca $end
$var wire 9 ! sum_out [8:0] $end
$var reg 1 " clk $end
$var reg 8 # num1 [7:0] $end
$var reg 8 $ num2 [7:0] $end
$var reg 1 % reset $end
$scope module uut $end
$var wire 8 & num1 [7:0] $end
$var wire 8 ' num2 [7:0] $end
$var wire 9 ( sum [8:0] $end
$var wire 8 ) int_sum [7:0] $end
$var wire 8 * int_co [7:0] $end
$scope module genblk1[1].u_fa_1 $end
$var wire 1 + _3_ $end
$var wire 1 , _4_ $end
$var wire 1 - _5_ $end
$var wire 1 . a $end
$var wire 1 / b $end
$var wire 1 0 c $end
$var wire 1 1 co $end
$var wire 1 2 sum $end
$var wire 1 3 _7_ $end
$var wire 1 4 _6_ $end
$scope module _8_ $end
$var wire 1 - A $end
$var wire 1 + B $end
$var wire 1 , C $end
$var wire 1 5 VGND $end
$var wire 1 6 VNB $end
$var wire 1 7 VPB $end
$var wire 1 8 VPWR $end
$var wire 1 4 X $end
$scope module base $end
$var wire 1 - A $end
$var wire 1 + B $end
$var wire 1 , C $end
$var wire 1 9 VGND $end
$var wire 1 : VNB $end
$var wire 1 ; VPB $end
$var wire 1 < VPWR $end
$var wire 1 4 X $end
$var wire 1 = and0_out $end
$var wire 1 > and1_out $end
$var wire 1 ? or0_out $end
$var wire 1 @ or1_out_X $end
$upscope $end
$upscope $end
$scope module _9_ $end
$var wire 1 - A $end
$var wire 1 + B $end
$var wire 1 , C $end
$var wire 1 A VGND $end
$var wire 1 B VNB $end
$var wire 1 C VPB $end
$var wire 1 D VPWR $end
$var wire 1 3 X $end
$scope module base $end
$var wire 1 - A $end
$var wire 1 + B $end
$var wire 1 , C $end
$var wire 1 E VGND $end
$var wire 1 F VNB $end
$var wire 1 G VPB $end
$var wire 1 H VPWR $end
$var wire 1 3 X $end
$var wire 1 I xor0_out_X $end
$upscope $end
$upscope $end
$upscope $end
$scope module genblk1[2].u_fa_1 $end
$var wire 1 J _3_ $end
$var wire 1 K _4_ $end
$var wire 1 L _5_ $end
$var wire 1 M a $end
$var wire 1 N b $end
$var wire 1 O c $end
$var wire 1 P co $end
$var wire 1 Q sum $end
$var wire 1 R _7_ $end
$var wire 1 S _6_ $end
$scope module _8_ $end
$var wire 1 L A $end
$var wire 1 J B $end
$var wire 1 K C $end
$var wire 1 T VGND $end
$var wire 1 U VNB $end
$var wire 1 V VPB $end
$var wire 1 W VPWR $end
$var wire 1 S X $end
$scope module base $end
$var wire 1 L A $end
$var wire 1 J B $end
$var wire 1 K C $end
$var wire 1 X VGND $end
$var wire 1 Y VNB $end
$var wire 1 Z VPB $end
$var wire 1 [ VPWR $end
$var wire 1 S X $end
$var wire 1 \ and0_out $end
$var wire 1 ] and1_out $end
$var wire 1 ^ or0_out $end
$var wire 1 _ or1_out_X $end
$upscope $end
$upscope $end
$scope module _9_ $end
$var wire 1 L A $end
$var wire 1 J B $end
$var wire 1 K C $end
$var wire 1 ` VGND $end
$var wire 1 a VNB $end
$var wire 1 b VPB $end
$var wire 1 c VPWR $end
$var wire 1 R X $end
$scope module base $end
$var wire 1 L A $end
$var wire 1 J B $end
$var wire 1 K C $end
$var wire 1 d VGND $end
$var wire 1 e VNB $end
$var wire 1 f VPB $end
$var wire 1 g VPWR $end
$var wire 1 R X $end
$var wire 1 h xor0_out_X $end
$upscope $end
$upscope $end
$upscope $end
$scope module genblk1[3].u_fa_1 $end
$var wire 1 i _3_ $end
$var wire 1 j _4_ $end
$var wire 1 k _5_ $end
$var wire 1 l a $end
$var wire 1 m b $end
$var wire 1 n c $end
$var wire 1 o co $end
$var wire 1 p sum $end
$var wire 1 q _7_ $end
$var wire 1 r _6_ $end
$scope module _8_ $end
$var wire 1 k A $end
$var wire 1 i B $end
$var wire 1 j C $end
$var wire 1 s VGND $end
$var wire 1 t VNB $end
$var wire 1 u VPB $end
$var wire 1 v VPWR $end
$var wire 1 r X $end
$scope module base $end
$var wire 1 k A $end
$var wire 1 i B $end
$var wire 1 j C $end
$var wire 1 w VGND $end
$var wire 1 x VNB $end
$var wire 1 y VPB $end
$var wire 1 z VPWR $end
$var wire 1 r X $end
$var wire 1 { and0_out $end
$var wire 1 | and1_out $end
$var wire 1 } or0_out $end
$var wire 1 ~ or1_out_X $end
$upscope $end
$upscope $end
$scope module _9_ $end
$var wire 1 k A $end
$var wire 1 i B $end
$var wire 1 j C $end
$var wire 1 !" VGND $end
$var wire 1 "" VNB $end
$var wire 1 #" VPB $end
$var wire 1 $" VPWR $end
$var wire 1 q X $end
$scope module base $end
$var wire 1 k A $end
$var wire 1 i B $end
$var wire 1 j C $end
$var wire 1 %" VGND $end
$var wire 1 &" VNB $end
$var wire 1 '" VPB $end
$var wire 1 (" VPWR $end
$var wire 1 q X $end
$var wire 1 )" xor0_out_X $end
$upscope $end
$upscope $end
$upscope $end
$scope module genblk1[4].u_fa_1 $end
$var wire 1 *" _3_ $end
$var wire 1 +" _4_ $end
$var wire 1 ," _5_ $end
$var wire 1 -" a $end
$var wire 1 ." b $end
$var wire 1 /" c $end
$var wire 1 0" co $end
$var wire 1 1" sum $end
$var wire 1 2" _7_ $end
$var wire 1 3" _6_ $end
$scope module _8_ $end
$var wire 1 ," A $end
$var wire 1 *" B $end
$var wire 1 +" C $end
$var wire 1 4" VGND $end
$var wire 1 5" VNB $end
$var wire 1 6" VPB $end
$var wire 1 7" VPWR $end
$var wire 1 3" X $end
$scope module base $end
$var wire 1 ," A $end
$var wire 1 *" B $end
$var wire 1 +" C $end
$var wire 1 8" VGND $end
$var wire 1 9" VNB $end
$var wire 1 :" VPB $end
$var wire 1 ;" VPWR $end
$var wire 1 3" X $end
$var wire 1 <" and0_out $end
$var wire 1 =" and1_out $end
$var wire 1 >" or0_out $end
$var wire 1 ?" or1_out_X $end
$upscope $end
$upscope $end
$scope module _9_ $end
$var wire 1 ," A $end
$var wire 1 *" B $end
$var wire 1 +" C $end
$var wire 1 @" VGND $end
$var wire 1 A" VNB $end
$var wire 1 B" VPB $end
$var wire 1 C" VPWR $end
$var wire 1 2" X $end
$scope module base $end
$var wire 1 ," A $end
$var wire 1 *" B $end
$var wire 1 +" C $end
$var wire 1 D" VGND $end
$var wire 1 E" VNB $end
$var wire 1 F" VPB $end
$var wire 1 G" VPWR $end
$var wire 1 2" X $end
$var wire 1 H" xor0_out_X $end
$upscope $end
$upscope $end
$upscope $end
$scope module genblk1[5].u_fa_1 $end
$var wire 1 I" _3_ $end
$var wire 1 J" _4_ $end
$var wire 1 K" _5_ $end
$var wire 1 L" a $end
$var wire 1 M" b $end
$var wire 1 N" c $end
$var wire 1 O" co $end
$var wire 1 P" sum $end
$var wire 1 Q" _7_ $end
$var wire 1 R" _6_ $end
$scope module _8_ $end
$var wire 1 K" A $end
$var wire 1 I" B $end
$var wire 1 J" C $end
$var wire 1 S" VGND $end
$var wire 1 T" VNB $end
$var wire 1 U" VPB $end
$var wire 1 V" VPWR $end
$var wire 1 R" X $end
$scope module base $end
$var wire 1 K" A $end
$var wire 1 I" B $end
$var wire 1 J" C $end
$var wire 1 W" VGND $end
$var wire 1 X" VNB $end
$var wire 1 Y" VPB $end
$var wire 1 Z" VPWR $end
$var wire 1 R" X $end
$var wire 1 [" and0_out $end
$var wire 1 \" and1_out $end
$var wire 1 ]" or0_out $end
$var wire 1 ^" or1_out_X $end
$upscope $end
$upscope $end
$scope module _9_ $end
$var wire 1 K" A $end
$var wire 1 I" B $end
$var wire 1 J" C $end
$var wire 1 _" VGND $end
$var wire 1 `" VNB $end
$var wire 1 a" VPB $end
$var wire 1 b" VPWR $end
$var wire 1 Q" X $end
$scope module base $end
$var wire 1 K" A $end
$var wire 1 I" B $end
$var wire 1 J" C $end
$var wire 1 c" VGND $end
$var wire 1 d" VNB $end
$var wire 1 e" VPB $end
$var wire 1 f" VPWR $end
$var wire 1 Q" X $end
$var wire 1 g" xor0_out_X $end
$upscope $end
$upscope $end
$upscope $end
$scope module genblk1[6].u_fa_1 $end
$var wire 1 h" _3_ $end
$var wire 1 i" _4_ $end
$var wire 1 j" _5_ $end
$var wire 1 k" a $end
$var wire 1 l" b $end
$var wire 1 m" c $end
$var wire 1 n" co $end
$var wire 1 o" sum $end
$var wire 1 p" _7_ $end
$var wire 1 q" _6_ $end
$scope module _8_ $end
$var wire 1 j" A $end
$var wire 1 h" B $end
$var wire 1 i" C $end
$var wire 1 r" VGND $end
$var wire 1 s" VNB $end
$var wire 1 t" VPB $end
$var wire 1 u" VPWR $end
$var wire 1 q" X $end
$scope module base $end
$var wire 1 j" A $end
$var wire 1 h" B $end
$var wire 1 i" C $end
$var wire 1 v" VGND $end
$var wire 1 w" VNB $end
$var wire 1 x" VPB $end
$var wire 1 y" VPWR $end
$var wire 1 q" X $end
$var wire 1 z" and0_out $end
$var wire 1 {" and1_out $end
$var wire 1 |" or0_out $end
$var wire 1 }" or1_out_X $end
$upscope $end
$upscope $end
$scope module _9_ $end
$var wire 1 j" A $end
$var wire 1 h" B $end
$var wire 1 i" C $end
$var wire 1 ~" VGND $end
$var wire 1 !# VNB $end
$var wire 1 "# VPB $end
$var wire 1 ## VPWR $end
$var wire 1 p" X $end
$scope module base $end
$var wire 1 j" A $end
$var wire 1 h" B $end
$var wire 1 i" C $end
$var wire 1 $# VGND $end
$var wire 1 %# VNB $end
$var wire 1 &# VPB $end
$var wire 1 '# VPWR $end
$var wire 1 p" X $end
$var wire 1 (# xor0_out_X $end
$upscope $end
$upscope $end
$upscope $end
$scope module genblk1[7].u_fa_1 $end
$var wire 1 )# _3_ $end
$var wire 1 *# _4_ $end
$var wire 1 +# _5_ $end
$var wire 1 ,# a $end
$var wire 1 -# b $end
$var wire 1 .# c $end
$var wire 1 /# co $end
$var wire 1 0# sum $end
$var wire 1 1# _7_ $end
$var wire 1 2# _6_ $end
$scope module _8_ $end
$var wire 1 +# A $end
$var wire 1 )# B $end
$var wire 1 *# C $end
$var wire 1 3# VGND $end
$var wire 1 4# VNB $end
$var wire 1 5# VPB $end
$var wire 1 6# VPWR $end
$var wire 1 2# X $end
$scope module base $end
$var wire 1 +# A $end
$var wire 1 )# B $end
$var wire 1 *# C $end
$var wire 1 7# VGND $end
$var wire 1 8# VNB $end
$var wire 1 9# VPB $end
$var wire 1 :# VPWR $end
$var wire 1 2# X $end
$var wire 1 ;# and0_out $end
$var wire 1 <# and1_out $end
$var wire 1 =# or0_out $end
$var wire 1 ># or1_out_X $end
$upscope $end
$upscope $end
$scope module _9_ $end
$var wire 1 +# A $end
$var wire 1 )# B $end
$var wire 1 *# C $end
$var wire 1 ?# VGND $end
$var wire 1 @# VNB $end
$var wire 1 A# VPB $end
$var wire 1 B# VPWR $end
$var wire 1 1# X $end
$scope module base $end
$var wire 1 +# A $end
$var wire 1 )# B $end
$var wire 1 *# C $end
$var wire 1 C# VGND $end
$var wire 1 D# VNB $end
$var wire 1 E# VPB $end
$var wire 1 F# VPWR $end
$var wire 1 1# X $end
$var wire 1 G# xor0_out_X $end
$upscope $end
$upscope $end
$upscope $end
$scope module u_fa_0 $end
$var wire 1 H# _3_ $end
$var wire 1 I# _4_ $end
$var wire 1 J# _5_ $end
$var wire 1 K# a $end
$var wire 1 L# b $end
$var wire 1 M# c $end
$var wire 1 N# co $end
$var wire 1 O# sum $end
$var wire 1 P# _7_ $end
$var wire 1 Q# _6_ $end
$scope module _8_ $end
$var wire 1 J# A $end
$var wire 1 H# B $end
$var wire 1 I# C $end
$var wire 1 R# VGND $end
$var wire 1 S# VNB $end
$var wire 1 T# VPB $end
$var wire 1 U# VPWR $end
$var wire 1 Q# X $end
$scope module base $end
$var wire 1 J# A $end
$var wire 1 H# B $end
$var wire 1 I# C $end
$var wire 1 V# VGND $end
$var wire 1 W# VNB $end
$var wire 1 X# VPB $end
$var wire 1 Y# VPWR $end
$var wire 1 Q# X $end
$var wire 1 Z# and0_out $end
$var wire 1 [# and1_out $end
$var wire 1 \# or0_out $end
$var wire 1 ]# or1_out_X $end
$upscope $end
$upscope $end
$scope module _9_ $end
$var wire 1 J# A $end
$var wire 1 H# B $end
$var wire 1 I# C $end
$var wire 1 ^# VGND $end
$var wire 1 _# VNB $end
$var wire 1 `# VPB $end
$var wire 1 a# VPWR $end
$var wire 1 P# X $end
$scope module base $end
$var wire 1 J# A $end
$var wire 1 H# B $end
$var wire 1 I# C $end
$var wire 1 b# VGND $end
$var wire 1 c# VNB $end
$var wire 1 d# VPB $end
$var wire 1 e# VPWR $end
$var wire 1 P# X $end
$var wire 1 f# xor0_out_X $end
$upscope $end
$upscope $end
$upscope $end
$upscope $end
$upscope $end
$enddefinitions $end
$comment Show the parameter values. $end
$dumpall
$end
#0
$dumpvars
0f#
1e#
1d#
0c#
0b#
1a#
1`#
0_#
0^#
0]#
0\#
0[#
0Z#
1Y#
1X#
0W#
0V#
1U#
1T#
0S#
0R#
0Q#
0P#
0O#
0N#
0M#
0L#
0K#
0J#
0I#
0H#
0G#
1F#
1E#
0D#
0C#
1B#
1A#
0@#
0?#
0>#
0=#
0<#
0;#
1:#
19#
08#
07#
16#
15#
04#
03#
02#
01#
00#
0/#
0.#
0-#
0,#
0+#
0*#
0)#
0(#
1'#
1&#
0%#
0$#
1##
1"#
0!#
0~"
0}"
0|"
0{"
0z"
1y"
1x"
0w"
0v"
1u"
1t"
0s"
0r"
0q"
0p"
0o"
0n"
0m"
0l"
0k"
0j"
0i"
0h"
0g"
1f"
1e"
0d"
0c"
1b"
1a"
0`"
0_"
0^"
0]"
0\"
0["
1Z"
1Y"
0X"
0W"
1V"
1U"
0T"
0S"
0R"
0Q"
0P"
0O"
0N"
0M"
0L"
0K"
0J"
0I"
0H"
1G"
1F"
0E"
0D"
1C"
1B"
0A"
0@"
0?"
0>"
0="
0<"
1;"
1:"
09"
08"
17"
16"
05"
04"
03"
02"
01"
00"
0/"
0."
0-"
0,"
0+"
0*"
0)"
1("
1'"
0&"
0%"
1$"
1#"
0""
0!"
0~
0}
0|
0{
1z
1y
0x
0w
1v
1u
0t
0s
0r
0q
0p
0o
0n
0m
0l
0k
0j
0i
0h
1g
1f
0e
0d
1c
1b
0a
0`
0_
0^
0]
0\
1[
1Z
0Y
0X
1W
1V
0U
0T
0S
0R
0Q
0P
0O
0N
0M
0L
0K
0J
0I
1H
1G
0F
0E
1D
1C
0B
0A
0@
0?
0>
0=
1<
1;
0:
09
18
17
06
05
04
03
02
01
00
0/
0.
0-
0,
0+
b0 *
b0 )
b0 (
b0 '
b0 &
1%
b0 $
b0 #
0"
b0 !
$end
#1000
b1 !
b1 (
b1 )
1O#
1P#
1\#
1f#
1H#
1K#
b1 #
b1 &
0%
#10000
12
13
b10 !
b10 (
b10 )
0O#
0P#
1?
1I
0\#
0f#
1+
1.
0H#
0K#
b10 #
b10 &
1"
#20000
b11 !
b11 (
b11 )
1O#
1P#
1\#
1f#
1H#
1K#
b11 #
b11 &
0"
#30000
02
03
1Q
1R
b100 !
b100 (
b100 )
0O#
0P#
0?
0I
1^
1h
0\#
0f#
0+
0.
1J
1M
0H#
0K#
b100 #
b100 &
1"
#40000
b101 !
b101 (
b101 )
1O#
1P#
1\#
1f#
1H#
1K#
b101 #
b101 &
0"
#50000
12
13
b110 !
b110 (
b110 )
0O#
0P#
1?
1I
0\#
0f#
1+
1.
0H#
0K#
b110 #
b110 &
1"
#60000
b111 !
b111 (
b111 )
1O#
1P#
1\#
1f#
1H#
1K#
b111 #
b111 &
0"
#70000
02
03
0Q
0R
1p
1q
b1000 !
b1000 (
b1000 )
0O#
0P#
0?
0I
0^
0h
1}
1)"
0\#
0f#
0+
0.
0J
0M
1i
1l
0H#
0K#
b1000 #
b1000 &
1"
#80000
b1001 !
b1001 (
b1001 )
1O#
1P#
1\#
1f#
1H#
1K#
b1001 #
b1001 &
0"
#90000
12
13
b1010 !
b1010 (
b1010 )
0O#
0P#
1?
1I
0\#
0f#
1+
1.
0H#
0K#
b1010 #
b1010 &
1"
#100000
b1011 !
b1011 (
b1011 )
1O#
1P#
1\#
1f#
1H#
1K#
b1011 #
b1011 &
0"
#110000
02
03
1Q
1R
b1100 !
b1100 (
b1100 )
0O#
0P#
0?
0I
1^
1h
0\#
0f#
0+
0.
1J
1M
0H#
0K#
b1100 #
b1100 &
1"
#120000
b1101 !
b1101 (
b1101 )
1O#
1P#
1\#
1f#
1H#
1K#
b1101 #
b1101 &
0"
#130000
12
13
b1110 !
b1110 (
b1110 )
0O#
0P#
1?
1I
0\#
0f#
1+
1.
0H#
0K#
b1110 #
b1110 &
1"
#140000
11"
12"
1>"
1H"
1,"
1/"
1o
1r
1~
0p
0q
1|
0)"
1k
1n
1P
1S
1_
0Q
0R
1]
0h
1L
1O
11
14
1@
b10000 !
b10000 (
b10000 )
02
03
1>
0I
1-
10
b1111 *
1N#
1Q#
1]#
1Z#
1\#
1I#
1L#
1H#
1K#
b1 $
b1 '
b1111 #
b1111 &
0"
#150000
0P"
0Q"
0?
0^
0}
0]"
0g"
0-
00
0L
0O
0k
0n
0,"
0/"
0K"
0N"
0N#
0Q#
01
04
0P
0S
0o
0r
b0 *
00"
03"
0]#
0@
02
03
0_
0Q
0R
0~
0p
0q
0?"
11"
12"
0Z#
b10001 !
b10001 (
b10001 )
1O#
1P#
0>
0I
0]
0h
0|
0)"
0="
1H"
0\#
1f#
0+
0.
0J
0M
0i
0l
1*"
1-"
0H#
0K#
b10000 #
b10000 &
1"
#160000
12
13
1?
1I
1-
10
b1 *
1N#
1Q#
1]#
1Z#
b10010 !
b10010 (
b10010 )
0O#
0P#
1\#
0f#
1H#
1K#
b10001 #
b10001 &
0"
#170000
0Q
0R
0^
0h
0-
00
0L
0O
0N#
0Q#
b0 *
01
04
0]#
0@
12
13
0Z#
b10011 !
b10011 (
b10011 )
1O#
1P#
0>
1I
0\#
1f#
1+
1.
0H#
0K#
b10010 #
b10010 &
1"
#180000
1Q
1R
1^
1h
1L
1O
11
14
1@
02
03
1>
0I
1-
10
b11 *
1N#
1Q#
1]#
1Z#
b10100 !
b10100 (
b10100 )
0O#
0P#
1\#
0f#
1H#
1K#
b10011 #
b10011 &
0"
#190000
0p
0q
0?
0}
0)"
0-
00
0L
0O
0k
0n
0N#
0Q#
01
04
b0 *
0P
0S
0]#
0@
02
03
0_
1Q
1R
0Z#
b10101 !
b10101 (
b10101 )
1O#
1P#
0>
0I
0]
1h
0\#
1f#
0+
0.
1J
1M
0H#
0K#
b10100 #
b10100 &
1"
#200000
12
13
1?
1I
1-
10
b1 *
1N#
1Q#
1]#
1Z#
b10110 !
b10110 (
b10110 )
0O#
0P#
1\#
0f#
1H#
1K#
b10101 #
b10101 &
0"
#210000
0p
0q
0}
0)"
0k
0n
0P
0S
0_
1Q
1R
0]
1h
0-
00
0L
0O
0N#
0Q#
b0 *
01
04
0]#
0@
12
13
0Z#
b10111 !
b10111 (
b10111 )
1O#
1P#
0>
1I
0\#
1f#
1+
1.
0H#
0K#
b10110 #
b10110 &
1"
#220000
1p
1q
1}
1)"
1k
1n
1P
1S
1_
0Q
0R
1]
0h
1L
1O
11
14
1@
02
03
1>
0I
1-
10
b111 *
1N#
1Q#
1]#
1Z#
b11000 !
b11000 (
b11000 )
0O#
0P#
1\#
0f#
1H#
1K#
b10111 #
b10111 &
0"
#230000
0P"
0Q"
0]"
0g"
0K"
0N"
00"
03"
0?"
11"
12"
0?
0^
0="
1H"
0-
00
0L
0O
0k
0n
0,"
0/"
0N#
0Q#
01
04
0P
0S
b0 *
0o
0r
0]#
0@
02
03
0_
0Q
0R
0~
1p
1q
0Z#
b11001 !
b11001 (
b11001 )
1O#
1P#
0>
0I
0]
0h
0|
1)"
0\#
1f#
0+
0.
0J
0M
1i
1l
0H#
0K#
b11000 #
b11000 &
1"
#240000
12
13
1?
1I
1-
10
b1 *
1N#
1Q#
1]#
1Z#
b11010 !
b11010 (
b11010 )
0O#
0P#
1\#
0f#
1H#
1K#
b11001 #
b11001 &
0"
#250000
0Q
0R
0^
0h
0-
00
0L
0O
0N#
0Q#
b0 *
01
04
0]#
0@
12
13
0Z#
b11011 !
b11011 (
b11011 )
1O#
1P#
0>
1I
0\#
1f#
1+
1.
0H#
0K#
b11010 #
b11010 &
1"
#260000
1Q
1R
1^
1h
1L
1O
11
14
1@
02
03
1>
0I
1-
10
b11 *
1N#
1Q#
1]#
1Z#
b11100 !
b11100 (
b11100 )
0O#
0P#
1\#
0f#
1H#
1K#
b11011 #
b11011 &
0"
#270000
0P"
0Q"
0]"
0g"
0K"
0N"
00"
03"
0?"
11"
12"
0="
1H"
0,"
0/"
0o
0r
0~
1p
1q
0?
0|
1)"
0-
00
0L
0O
0k
0n
0N#
0Q#
01
04
b0 *
0P
0S
0]#
0@
02
03
0_
1Q
1R
0Z#
b11101 !
b11101 (
b11101 )
1O#
1P#
0>
0I
0]
1h
0\#
1f#
0+
0.
1J
1M
0H#
0K#
b11100 #
b11100 &
1"
#280000
12
13
1?
1I
1-
10
b1 *
1N#
1Q#
1]#
1Z#
b11110 !
b11110 (
b11110 )
0O#
0P#
1\#
0f#
1H#
1K#
b11101 #
b11101 &
0"
#290000
0P"
0Q"
0]"
0g"
0K"
0N"
00"
03"
0?"
11"
12"
0="
1H"
0,"
0/"
0o
0r
0~
1p
1q
0|
1)"
0k
0n
0P
0S
0_
1Q
1R
0]
1h
0-
00
0L
0O
0N#
0Q#
b0 *
01
04
0]#
0@
12
13
0Z#
b11111 !
b11111 (
b11111 )
1O#
1P#
0>
1I
0\#
1f#
1+
1.
0H#
0K#
b11110 #
b11110 &
1"
#300000
1P"
1Q"
1]"
1g"
1K"
1N"
10"
13"
1?"
01"
02"
1="
0H"
1,"
1/"
1o
1r
1~
0p
0q
1|
0)"
1k
1n
1P
1S
1_
0Q
0R
1]
0h
1L
1O
b11110 *
11
14
1@
b100001 !
b100001 (
b100001 )
02
03
1=
0I
1\#
1,
1/
0I#
0L#
1H#
1K#
b10 $
b10 '
b11111 #
b11111 &
0"
#310000
0^
0o"
0p"
0L
0O
0}
0>"
0|"
0(#
01
04
0k
0n
0,"
0/"
0K"
0N"
0j"
0m"
0@
0P
0S
0o
0r
00"
03"
b0 *
0O"
0R"
0=
12
13
0_
0Q
0R
0~
0p
0q
0?"
01"
02"
0^"
1P"
1Q"
b100010 !
b100010 (
b100010 )
0O#
0P#
0?
1I
0]
0h
0|
0)"
0="
0H"
0\"
1g"
0\#
0f#
0+
0.
0J
0M
0i
0l
0*"
0-"
1I"
1L"
0H#
0K#
b100000 #
b100000 &
1"
#320000
b100011 !
b100011 (
b100011 )
1O#
1P#
1\#
1f#
1H#
1K#
b100001 #
b100001 &
0"
#330000
1Q
1R
1^
1h
1L
1O
b10 *
11
14
1@
1=
02
03
b100100 !
b100100 (
b100100 )
0O#
0P#
1?
0I
0\#
0f#
1+
1.
0H#
0K#
b100010 #
b100010 &
1"
#340000
b100101 !
b100101 (
b100101 )
1O#
1P#
1\#
1f#
1H#
1K#
b100011 #
b100011 &
0"
#350000
0p
0q
0L
0O
0}
0)"
01
04
0k
0n
0@
b0 *
0P
0S
0=
12
13
0_
1Q
1R
b100110 !
b100110 (
b100110 )
0O#
0P#
0?
1I
0]
1h
0\#
0f#
0+
0.
1J
1M
0H#
0K#
b100100 #
b100100 &
1"
#360000
b100111 !
b100111 (
b100111 )
1O#
1P#
1\#
1f#
1H#
1K#
b100101 #
b100101 &
0"
#370000
1p
1q
1}
1)"
1k
1n
1P
1S
1_
0Q
0R
1]
0h
1L
1O
b110 *
11
14
1@
1=
02
03
b101000 !
b101000 (
b101000 )
0O#
0P#
1?
0I
0\#
0f#
1+
1.
0H#
0K#
b100110 #
b100110 &
1"
#380000
b101001 !
b101001 (
b101001 )
1O#
1P#
1\#
1f#
1H#
1K#
b100111 #
b100111 &
0"
#390000
0^
01"
02"
0L
0O
0>"
0H"
01
04
0k
0n
0,"
0/"
0@
0P
0S
b0 *
0o
0r
0=
12
13
0_
0Q
0R
0~
1p
1q
b101010 !
b101010 (
b101010 )
0O#
0P#
0?
1I
0]
0h
0|
1)"
0\#
0f#
0+
0.
0J
0M
1i
1l
0H#
0K#
b101000 #
b101000 &
1"
#400000
b101011 !
b101011 (
b101011 )
1O#
1P#
1\#
1f#
1H#
1K#
b101001 #
b101001 &
0"
#410000
1Q
1R
1^
1h
1L
1O
b10 *
11
14
1@
1=
02
03
b101100 !
b101100 (
b101100 )
0O#
0P#
1?
0I
0\#
0f#
1+
1.
0H#
0K#
b101010 #
b101010 &
1"
#420000
b101101 !
b101101 (
b101101 )
1O#
1P#
1\#
1f#
1H#
1K#
b101011 #
b101011 &
0"
#430000
01"
02"
0>"
0H"
0,"
0/"
0o
0r
0~
1p
1q
0L
0O
0|
1)"
01
04
0k
0n
0@
b0 *
0P
0S
0=
12
13
0_
1Q
1R
b101110 !
b101110 (
b101110 )
0O#
0P#
0?
1I
0]
1h
0\#
0f#
0+
0.
1J
1M
0H#
0K#
b101100 #
b101100 &
1"
#440000
b101111 !
b101111 (
b101111 )
1O#
1P#
1\#
1f#
1H#
1K#
b101101 #
b101101 &
0"
#450000
11"
12"
1>"
1H"
1,"
1/"
1o
1r
1~
0p
0q
1|
0)"
1k
1n
1P
1S
1_
0Q
0R
1]
0h
1L
1O
b1110 *
11
14
1@
1=
02
03
b110000 !
b110000 (
b110000 )
0O#
0P#
1?
0I
0\#
0f#
1+
1.
0H#
0K#
b101110 #
b101110 &
1"
#460000
b110010 !
b110010 (
b110010 )
12
13
1>
1I
1-
10
b1111 *
1N#
1Q#
1]#
1Z#
1\#
1I#
1L#
1H#
1K#
b11 $
b11 '
b101111 #
b101111 &
0"
#470000
0^
0o"
0p"
0L
0O
0|"
0(#
01
04
0j"
0m"
0@
0O"
0R"
0=
0^"
1P"
1Q"
0?
0}
0\"
1g"
0-
00
0k
0n
0,"
0/"
0K"
0N"
0N#
0Q#
0P
0S
0o
0r
b0 *
00"
03"
0]#
12
13
0_
0Q
0R
0~
0p
0q
0?"
11"
12"
0Z#
b110011 !
b110011 (
b110011 )
1O#
1P#
0>
1I
0]
0h
0|
0)"
0="
1H"
0\#
1f#
0+
0.
0J
0M
0i
0l
1*"
1-"
0H#
0K#
b110000 #
b110000 &
1"
#480000
1Q
1R
1^
1h
1L
1O
11
14
1@
1=
02
03
1?
0I
1-
10
b11 *
1N#
1Q#
1]#
1Z#
b110100 !
b110100 (
b110100 )
0O#
0P#
1\#
0f#
1H#
1K#
b110001 #
b110001 &
0"
#490000
0-
00
b10 *
0N#
0Q#
0]#
02
03
0Z#
b110101 !
b110101 (
b110101 )
1O#
1P#
0>
0I
0\#
1f#
1+
1.
0H#
0K#
b110010 #
b110010 &
1"
#500000
12
13
1>
1I
1-
10
b11 *
1N#
1Q#
1]#
1Z#
b110110 !
b110110 (
b110110 )
0O#
0P#
1\#
0f#
1H#
1K#
b110011 #
b110011 &
0"
#510000
0L
0O
01
04
0@
0=
0p
0q
0?
0}
0)"
0-
00
0k
0n
0N#
0Q#
b0 *
0P
0S
0]#
12
13
0_
1Q
1R
0Z#
b110111 !
b110111 (
b110111 )
1O#
1P#
0>
1I
0]
1h
0\#
1f#
0+
0.
1J
1M
0H#
0K#
b110100 #
b110100 &
1"
#520000
1p
1q
1}
1)"
1k
1n
1P
1S
1_
0Q
0R
1]
0h
1L
1O
11
14
1@
1=
02
03
1?
0I
1-
10
b111 *
1N#
1Q#
1]#
1Z#
b111000 !
b111000 (
b111000 )
0O#
0P#
1\#
0f#
1H#
1K#
b110101 #
b110101 &
0"
#530000
0-
00
b110 *
0N#
0Q#
0]#
02
03
0Z#
b111001 !
b111001 (
b111001 )
1O#
1P#
0>
0I
0\#
1f#
1+
1.
0H#
0K#
b110110 #
b110110 &
1"
#540000
12
13
1>
1I
1-
10
b111 *
1N#
1Q#
1]#
1Z#
b111010 !
b111010 (
b111010 )
0O#
0P#
1\#
0f#
1H#
1K#
b110111 #
b110111 &
0"
#550000
0o"
0p"
0|"
0(#
0j"
0m"
0O"
0R"
0^
0^"
1P"
1Q"
0L
0O
0\"
1g"
01
04
0K"
0N"
0@
00"
03"
0=
0?"
11"
12"
0?
0="
1H"
0-
00
0k
0n
0,"
0/"
0N#
0Q#
0P
0S
b0 *
0o
0r
0]#
12
13
0_
0Q
0R
0~
1p
1q
0Z#
b111011 !
b111011 (
b111011 )
1O#
1P#
0>
1I
0]
0h
0|
1)"
0\#
1f#
0+
0.
0J
0M
1i
1l
0H#
0K#
b111000 #
b111000 &
1"
#560000
1Q
1R
1^
1h
1L
1O
11
14
1@
1=
02
03
1?
0I
1-
10
b11 *
1N#
1Q#
1]#
1Z#
b111100 !
b111100 (
b111100 )
0O#
0P#
1\#
0f#
1H#
1K#
b111001 #
b111001 &
0"
#570000
0-
00
b10 *
0N#
0Q#
0]#
02
03
0Z#
b111101 !
b111101 (
b111101 )
1O#
1P#
0>
0I
0\#
1f#
1+
1.
0H#
0K#
b111010 #
b111010 &
1"
#580000
12
13
1>
1I
1-
10
b11 *
1N#
1Q#
1]#
1Z#
b111110 !
b111110 (
b111110 )
0O#
0P#
1\#
0f#
1H#
1K#
b111011 #
b111011 &
0"
